…
`read_mbta_gtfs()` is a wrapper for `tidytransit::read_gtfs()`. It
stores the individual tables in a list and enforces column types as
specified in the GTFS standard.

For some downstream trip planners and other applications, it is
useful/necessary to remove all extraneous stops, shapes, routes, and
`service_id`s (i.e., those that are not used in the either `trips.txt`
or `stop_times.txt`). You can check for extraneous components with
`gtfs_removal_check()`:

``` r
gtfs_removal_check(mbta_gtfs)
#> $routes_unused
#> # A tibble: 31 × 14
#>    route_id      agenc…¹ route…² route…³ route…⁴ route…⁵ route…⁶ route…⁷ route…⁸
#>    <chr>         <chr>   <chr>   <chr>   <chr>     <int> <chr>   <chr>   <chr>  
#>  1 195           1       195     "Lemue… Supple…       3 "https… FFC72C  000000 
#>  2 Shuttle-Gene… 1       Shuttle ""      Rail R…       3 ""      FFC72C  000000 
#>  3 Shuttle-Gene… 1       Blue L… ""      Rail R…       3 ""      FFC72C  000000 
#>  4 Shuttle-Gene… 1       Commut… ""      Rail R…       3 ""      FFC72C  000000 
#>  5 Shuttle-Gene… 1       North … ""      Rail R…       3 ""      FFC72C  000000 
#>  6 Shuttle-Gene… 1       South … ""      Rail R…       3 ""      FFC72C  000000 
#>  7 Shuttle-Gene… 1       Elevat… ""      Rail R…       3 ""      FFC72C  000000 
#>  8 Shuttle-Gene… 1       Fairmo… ""      Rail R…       3 ""      FFC72C  000000 
#>  9 Shuttle-Gene… 1       Fitchb… ""      Rail R…       3 ""      FFC72C  000000 
#> 10 Shuttle-Gene… 1       Frankl… ""      Rail R…       3 ""      FFC72C  000000 
#> # … with 21 more rows, 5 more variables: route_sort_order <int>,
#> #   route_fare_class <chr>, line_id <chr>, listed_route <chr>,
#> #   network_id <chr>, and abbreviated variable names ¹​agency_id,
#> #   ²​route_short_name, ³​route_long_name, ⁴​route_desc, ⁵​route_type, ⁶​route_url,
#> #   ⁷​route_color, ⁸​route_text_color
#> 
#> $shapes_unused
#> # A tibble: 2,053 × 5
#>    shape_id shape_pt_lat shape_pt_lon shape_pt_sequence shape_dist_traveled
#>    <chr>           <dbl>        <dbl>             <int>               <dbl>
#>  1 pull0141         42.3        -71.1             10001                  NA
#>  2 pull0141         42.3        -71.1             10002                  NA
#>  3 pull0141         42.3        -71.1             10003                  NA
#>  4 pull0141         42.3        -71.1             10004                  NA
#>  5 pull0141         42.3        -71.1             10005                  NA
#>  6 pull0141         42.3        -71.1             10006                  NA
#>  7 pull0141         42.3        -71.1             10007                  NA
#>  8 pull0141         42.3        -71.1             10008                  NA
#>  9 pull0141         42.3        -71.1             10009                  NA
#> 10 pull0141         42.3        -71.1             10010                  NA
#> # … with 2,043 more rows
#> 
#> $stops_unused
#> # A tibble: 2,349 × 19
#>    stop_id       stop_…¹ stop_…² stop_…³ platf…⁴ stop_…⁵ stop_…⁶ zone_id stop_…⁷
#>    <chr>         <chr>   <chr>   <chr>   <chr>     <dbl>   <dbl> <chr>   <chr>  
#>  1 Boat-George   ""      George… "Georg… ""         42.3   -70.9 Boat-G… https:…
#>  2 Boat-Long-So… ""      Long W… "Long … "4"        42.4   -71.0 Boat-L… https:…
#>  3 place-CM-0493 ""      Wareha… ""      ""         41.8   -70.7 CF-zon… https:…
#>  4 place-CM-0547 ""      Buzzar… ""      ""         41.7   -70.6 CF-zon… https:…
#>  5 place-CM-0564 ""      Bourne  ""      ""         41.7   -70.6 CF-zon… https:…
#>  6 place-CM-0790 ""      Hyannis ""      ""         41.7   -70.3 CF-zon… https:…
#>  7 place-DB-0095 ""      Readvi… ""      ""         42.2   -71.1 CR-zon… https:…
#>  8 DB-0095       ""      Readvi… "Readv… ""         42.2   -71.1 CR-zon… https:…
#>  9 place-DB-2205 ""      Fairmo… ""      ""         42.3   -71.1 CR-zon… https:…
#> 10 DB-2205       ""      Fairmo… "Fairm… ""         42.3   -71.1 CR-zon… https:…
#> # … with 2,339 more rows, 10 more variables: level_id <chr>,
#> #   location_type <int>, parent_station <chr>, wheelchair_boarding <int>,
#> #   platform_name <chr>, stop_address <chr>, municipality <chr>,
#> #   on_street <chr>, at_street <chr>, vehicle_type <chr>, and abbreviated
#> #   variable names ¹​stop_code, ²​stop_name, ³​stop_desc, ⁴​platform_code,
#> #   ⁵​stop_lat, ⁶​stop_lon, ⁷​stop_url
```
…
